{
    "meta": {
        "limit": 5,
        "next": "/api/v2/file/?username=analyst&api_key=ow7ioGh2reephua8uPaiWee4EiHeev6u&limit=5&offset=5",
        "offset": 0,
        "previous": null,
        "total_count": 34
    },
    "objects": [
        {
            "current_full_path": "/var/archivematica/sharedDirectory/www/AIPsStore/8602/7a2b/34c9/4de5/aa3c/5fef/214a/9860/test2-86027a2b-34c9-4de5-aa3c-5fef214a9860.7z",
            "current_location": "/api/v2/location/04305e96-acfe-41e3-865c-eed0e092d351/",
            "current_path": "8602/7a2b/34c9/4de5/aa3c/5fef/214a/9860/test2-86027a2b-34c9-4de5-aa3c-5fef214a9860.7z",
            "encrypted": false,
            "misc_attributes": {},
            "origin_pipeline": "/api/v2/pipeline/2b3d91c5-fd64-4f35-9615-004e8b112979/",
            "package_type": "AIP",
            "related_packages": [],
            "replicas": [],
            "replicated_package": null,
            "resource_uri": "/api/v2/file/86027a2b-34c9-4de5-aa3c-5fef214a9860/",
            "size": 5060717,
            "status": "UPLOADED",
            "uuid": "86027a2b-34c9-4de5-aa3c-5fef214a9860"
        },
        {
            "current_full_path": "/var/archivematica/sharedDirectory/www/AIPsStore/e707/f9fe/d4c9/4c81/900f/3391/5101/dced/test1-e707f9fe-d4c9-4c81-900f-33915101dced.7z",
            "current_location": "/api/v2/location/04305e96-acfe-41e3-865c-eed0e092d351/",
            "current_path": "e707/f9fe/d4c9/4c81/900f/3391/5101/dced/test1-e707f9fe-d4c9-4c81-900f-33915101dced.7z",
            "encrypted": false,
            "misc_attributes": {},
            "origin_pipeline": "/api/v2/pipeline/2b3d91c5-fd64-4f35-9615-004e8b112979/",
            "package_type": "AIP",
            "related_packages": [],
            "replicas": [],
            "replicated_package": null,
            "resource_uri": "/api/v2/file/e707f9fe-d4c9-4c81-900f-33915101dced/",
            "size": 29974,
            "status": "UPLOADED",
            "uuid": "e707f9fe-d4c9-4c81-900f-33915101dced"
        },
        {
            "current_full_path": "/var/archivematica/sharedDirectory/www/AIPsStore/f2a0/3192/ccb4/4f31/8d2a/afca/36e9/3113/test3-f2a03192-ccb4-4f31-8d2a-afca36e93113.7z",
            "current_location": "/api/v2/location/04305e96-acfe-41e3-865c-eed0e092d351/",
            "current_path": "f2a0/3192/ccb4/4f31/8d2a/afca/36e9/3113/test3-f2a03192-ccb4-4f31-8d2a-afca36e93113.7z",
            "encrypted": false,
            "misc_attributes": {},
            "origin_pipeline": "/api/v2/pipeline/2b3d91c5-fd64-4f35-9615-004e8b112979/",
            "package_type": "AIP",
            "related_packages": [],
            "replicas": [],
            "replicated_package": null,
            "resource_uri": "/api/v2/file/f2a03192-ccb4-4f31-8d2a-afca36e93113/",
            "size": 13629769,
            "status": "UPLOADED",
            "uuid": "f2a03192-ccb4-4f31-8d2a-afca36e93113"
        },
        {
            "current_full_path": "/var/archivematica/sharedDirectory/www/AIPsStore/a6eb/9fe7/3592/4e56/9d36/b252/f8e9/fcac/test4-a6eb9fe7-3592-4e56-9d36-b252f8e9fcac.7z",
            "current_location": "/api/v2/location/04305e96-acfe-41e3-865c-eed0e092d351/",
            "current_path": "a6eb/9fe7/3592/4e56/9d36/b252/f8e9/fcac/test4-a6eb9fe7-3592-4e56-9d36-b252f8e9fcac.7z",
            "encrypted": false,
            "misc_attributes": {},
            "origin_pipeline": "/api/v2/pipeline/2b3d91c5-fd64-4f35-9615-004e8b112979/",
            "package_type": "AIP",
            "related_packages": [],
            "replicas": [],
            "replicated_package": null,
            "resource_uri": "/api/v2/file/a6eb9fe7-3592-4e56-9d36-b252f8e9fcac/",
            "size": 43465146,
            "status": "UPLOADED",
            "uuid": "a6eb9fe7-3592-4e56-9d36-b252f8e9fcac"
        },
        {
            "current_full_path": "/var/archivematica/sharedDirectory/www/AIPsStore/f1d0/fd12/8687/4c89/b496/9c68/7701/d8c8/test5-f1d0fd12-8687-4c89-b496-9c687701d8c8.7z",
            "current_location": "/api/v2/location/04305e96-acfe-41e3-865c-eed0e092d351/",
            "current_path": "f1d0/fd12/8687/4c89/b496/9c68/7701/d8c8/test5-f1d0fd12-8687-4c89-b496-9c687701d8c8.7z",
            "encrypted": false,
            "misc_attributes": {},
            "origin_pipeline": "/api/v2/pipeline/2b3d91c5-fd64-4f35-9615-004e8b112979/",
            "package_type": "AIP",
            "related_packages": [],
            "replicas": [],
            "replicated_package": null,
            "resource_uri": "/api/v2/file/f1d0fd12-8687-4c89-b496-9c687701d8c8/",
            "size": 43409379,
            "status": "UPLOADED",
            "uuid": "f1d0fd12-8687-4c89-b496-9c687701d8c8"
        }
    ]
}