{
    "meta": {
        "limit": 5,
        "next": "/api/v2/file/?username=analyst&api_key=ow7ioGh2reephua8uPaiWee4EiHeev6u&limit=5&offset=10",
        "offset": 5,
        "previous": "/api/v2/file/?username=analyst&api_key=ow7ioGh2reephua8uPaiWee4EiHeev6u&limit=5&offset=0",
        "total_count": 34
    },
    "objects": [
        {
            "current_full_path": "/var/archivematica/sharedDirectory/www/DIPsStore/761b/10a5/2413/48ab/83ec/5afb/032f/d9dd/test6-248772ca-9f53-4972-bcd7-f77afb1fae4f",
            "current_location": "/api/v2/location/4e09f556-ae54-41f6-9dd9-e70d6e121964/",
            "current_path": "761b/10a5/2413/48ab/83ec/5afb/032f/d9dd/test6-248772ca-9f53-4972-bcd7-f77afb1fae4f",
            "encrypted": false,
            "misc_attributes": {},
            "origin_pipeline": "/api/v2/pipeline/2b3d91c5-fd64-4f35-9615-004e8b112979/",
            "package_type": "DIP",
            "related_packages": [
                "/api/v2/file/248772ca-9f53-4972-bcd7-f77afb1fae4f/"
            ],
            "replicas": [],
            "replicated_package": null,
            "resource_uri": "/api/v2/file/761b10a5-2413-48ab-83ec-5afb032fd9dd/",
            "size": 25461628,
            "status": "UPLOADED",
            "uuid": "761b10a5-2413-48ab-83ec-5afb032fd9dd"
        },
        {
            "current_full_path": "/var/archivematica/sharedDirectory/www/AIPsStore/d78d/961a/dbeb/4084/a6fb/da1b/f3e4/e3fe/test7-d78d961a-dbeb-4084-a6fb-da1bf3e4e3fe.7z",
            "current_location": "/api/v2/location/04305e96-acfe-41e3-865c-eed0e092d351/",
            "current_path": "d78d/961a/dbeb/4084/a6fb/da1b/f3e4/e3fe/test7-d78d961a-dbeb-4084-a6fb-da1bf3e4e3fe.7z",
            "encrypted": false,
            "misc_attributes": {},
            "origin_pipeline": "/api/v2/pipeline/2b3d91c5-fd64-4f35-9615-004e8b112979/",
            "package_type": "AIP",
            "related_packages": [],
            "replicas": [],
            "replicated_package": null,
            "resource_uri": "/api/v2/file/d78d961a-dbeb-4084-a6fb-da1bf3e4e3fe/",
            "size": 11410287,
            "status": "UPLOADED",
            "uuid": "d78d961a-dbeb-4084-a6fb-da1bf3e4e3fe"
        },
        {
            "current_full_path": "/var/archivematica/sharedDirectory/www/AIPsStore/2487/72ca/9f53/4972/bcd7/f77a/fb1f/ae4f/test6-248772ca-9f53-4972-bcd7-f77afb1fae4f.7z",
            "current_location": "/api/v2/location/04305e96-acfe-41e3-865c-eed0e092d351/",
            "current_path": "2487/72ca/9f53/4972/bcd7/f77a/fb1f/ae4f/test6-248772ca-9f53-4972-bcd7-f77afb1fae4f.7z",
            "encrypted": false,
            "misc_attributes": {},
            "origin_pipeline": "/api/v2/pipeline/2b3d91c5-fd64-4f35-9615-004e8b112979/",
            "package_type": "AIP",
            "related_packages": [
                "/api/v2/file/761b10a5-2413-48ab-83ec-5afb032fd9dd/"
            ],
            "replicas": [],
            "replicated_package": null,
            "resource_uri": "/api/v2/file/248772ca-9f53-4972-bcd7-f77afb1fae4f/",
            "size": 34783486,
            "status": "UPLOADED",
            "uuid": "248772ca-9f53-4972-bcd7-f77afb1fae4f"
        },
        {
            "current_full_path": "/var/archivematica/sharedDirectory/www/AIPsStore/fd40/c4b3/0c1b/4619/b564/8e21/641e/8c11/test9-fd40c4b3-0c1b-4619-b564-8e21641e8c11.7z",
            "current_location": "/api/v2/location/04305e96-acfe-41e3-865c-eed0e092d351/",
            "current_path": "fd40/c4b3/0c1b/4619/b564/8e21/641e/8c11/test9-fd40c4b3-0c1b-4619-b564-8e21641e8c11.7z",
            "encrypted": false,
            "misc_attributes": {},
            "origin_pipeline": "/api/v2/pipeline/2b3d91c5-fd64-4f35-9615-004e8b112979/",
            "package_type": "AIP",
            "related_packages": [],
            "replicas": [],
            "replicated_package": null,
            "resource_uri": "/api/v2/file/fd40c4b3-0c1b-4619-b564-8e21641e8c11/",
            "size": 1060598,
            "status": "UPLOADED",
            "uuid": "fd40c4b3-0c1b-4619-b564-8e21641e8c11"
        },
        {
            "current_full_path": "/var/archivematica/sharedDirectory/www/AIPsStore/cf0f/65de/2951/44ba/841f/caeb/2803/627d/test8-cf0f65de-2951-44ba-841f-caeb2803627d.7z",
            "current_location": "/api/v2/location/04305e96-acfe-41e3-865c-eed0e092d351/",
            "current_path": "cf0f/65de/2951/44ba/841f/caeb/2803/627d/test8-cf0f65de-2951-44ba-841f-caeb2803627d.7z",
            "encrypted": false,
            "misc_attributes": {},
            "origin_pipeline": "/api/v2/pipeline/2b3d91c5-fd64-4f35-9615-004e8b112979/",
            "package_type": "AIP",
            "related_packages": [],
            "replicas": [],
            "replicated_package": null,
            "resource_uri": "/api/v2/file/cf0f65de-2951-44ba-841f-caeb2803627d/",
            "size": 11414016,
            "status": "UPLOADED",
            "uuid": "cf0f65de-2951-44ba-841f-caeb2803627d"
        }
    ]
}