{
    "meta": {
        "limit": 5,
        "next": "/api/v2/file/?username=analyst&api_key=ow7ioGh2reephua8uPaiWee4EiHeev6u&limit=5&offset=15",
        "offset": 10,
        "previous": "/api/v2/file/?username=analyst&api_key=ow7ioGh2reephua8uPaiWee4EiHeev6u&limit=5&offset=5",
        "total_count": 34
    },
    "objects": [
        {
            "current_full_path": "/var/archivematica/sharedDirectory/www/AIPsStore/527c/ec2a/cdec/459c/b5d1/1f6a/709e/1d13/test10-527cec2a-cdec-459c-b5d1-1f6a709e1d13.7z",
            "current_location": "/api/v2/location/04305e96-acfe-41e3-865c-eed0e092d351/",
            "current_path": "527c/ec2a/cdec/459c/b5d1/1f6a/709e/1d13/test10-527cec2a-cdec-459c-b5d1-1f6a709e1d13.7z",
            "encrypted": false,
            "misc_attributes": {},
            "origin_pipeline": "/api/v2/pipeline/2b3d91c5-fd64-4f35-9615-004e8b112979/",
            "package_type": "AIP",
            "related_packages": [],
            "replicas": [],
            "replicated_package": null,
            "resource_uri": "/api/v2/file/527cec2a-cdec-459c-b5d1-1f6a709e1d13/",
            "size": 24118652,
            "status": "UPLOADED",
            "uuid": "527cec2a-cdec-459c-b5d1-1f6a709e1d13"
        },
        {
            "current_full_path": "/var/archivematica/sharedDirectory/www/AIPsStore/4c4f/1053/a382/434a/8591/d2e3/1d7c/7339/test11-4c4f1053-a382-434a-8591-d2e31d7c7339.7z",
            "current_location": "/api/v2/location/04305e96-acfe-41e3-865c-eed0e092d351/",
            "current_path": "4c4f/1053/a382/434a/8591/d2e3/1d7c/7339/test11-4c4f1053-a382-434a-8591-d2e31d7c7339.7z",
            "encrypted": false,
            "misc_attributes": {},
            "origin_pipeline": "/api/v2/pipeline/2b3d91c5-fd64-4f35-9615-004e8b112979/",
            "package_type": "AIP",
            "related_packages": [],
            "replicas": [],
            "replicated_package": null,
            "resource_uri": "/api/v2/file/4c4f1053-a382-434a-8591-d2e31d7c7339/",
            "size": 851137,
            "status": "UPLOADED",
            "uuid": "4c4f1053-a382-434a-8591-d2e31d7c7339"
        },
        {
            "current_full_path": "/var/archivematica/sharedDirectory/www/AIPsStore/223e/a027/cb93/44f0/82b2/9022/3f0d/1974/BagTransfer-223ea027-cb93-44f0-82b2-90223f0d1974.7z",
            "current_location": "/api/v2/location/04305e96-acfe-41e3-865c-eed0e092d351/",
            "current_path": "223e/a027/cb93/44f0/82b2/9022/3f0d/1974/BagTransfer-223ea027-cb93-44f0-82b2-90223f0d1974.7z",
            "encrypted": false,
            "misc_attributes": {},
            "origin_pipeline": "/api/v2/pipeline/2b3d91c5-fd64-4f35-9615-004e8b112979/",
            "package_type": "AIP",
            "related_packages": [],
            "replicas": [],
            "replicated_package": null,
            "resource_uri": "/api/v2/file/223ea027-cb93-44f0-82b2-90223f0d1974/",
            "size": 29179,
            "status": "UPLOADED",
            "uuid": "223ea027-cb93-44f0-82b2-90223f0d1974"
        },
        {
            "current_full_path": "/var/archivematica/sharedDirectory/www/AIPsStore/93ed/1799/1730/4c89/a826/27bd/6cca/82b5/ZippedBag-93ed1799-1730-4c89-a826-27bd6cca82b5.7z",
            "current_location": "/api/v2/location/04305e96-acfe-41e3-865c-eed0e092d351/",
            "current_path": "93ed/1799/1730/4c89/a826/27bd/6cca/82b5/ZippedBag-93ed1799-1730-4c89-a826-27bd6cca82b5.7z",
            "encrypted": false,
            "misc_attributes": {},
            "origin_pipeline": "/api/v2/pipeline/2b3d91c5-fd64-4f35-9615-004e8b112979/",
            "package_type": "AIP",
            "related_packages": [],
            "replicas": [],
            "replicated_package": null,
            "resource_uri": "/api/v2/file/93ed1799-1730-4c89-a826-27bd6cca82b5/",
            "size": 92867,
            "status": "UPLOADED",
            "uuid": "93ed1799-1730-4c89-a826-27bd6cca82b5"
        },
        {
            "current_full_path": "/var/archivematica/sharedDirectory/www/AIPsStore/883f/f294/0565/48fe/9ee3/f255/1283/4470/test12-883ff294-0565-48fe-9ee3-f25512834470.7z",
            "current_location": "/api/v2/location/04305e96-acfe-41e3-865c-eed0e092d351/",
            "current_path": "883f/f294/0565/48fe/9ee3/f255/1283/4470/test12-883ff294-0565-48fe-9ee3-f25512834470.7z",
            "encrypted": false,
            "misc_attributes": {},
            "origin_pipeline": "/api/v2/pipeline/2b3d91c5-fd64-4f35-9615-004e8b112979/",
            "package_type": "AIP",
            "related_packages": [],
            "replicas": [],
            "replicated_package": null,
            "resource_uri": "/api/v2/file/883ff294-0565-48fe-9ee3-f25512834470/",
            "size": 898389,
            "status": "UPLOADED",
            "uuid": "883ff294-0565-48fe-9ee3-f25512834470"
        }
    ]
}