{
    "meta": {
        "limit": 5,
        "next": "/api/v2/file/?username=analyst&api_key=ow7ioGh2reephua8uPaiWee4EiHeev6u&limit=5&offset=25",
        "offset": 20,
        "previous": "/api/v2/file/?username=analyst&api_key=ow7ioGh2reephua8uPaiWee4EiHeev6u&limit=5&offset=15",
        "total_count": 34
    },
    "objects": [
        {
            "current_full_path": "/var/archivematica/sharedDirectory/www/AIPsStore/b585/5ef6/fe5c/43b7/abec/2d96/f4cf/707e/test19-b5855ef6-fe5c-43b7-abec-2d96f4cf707e.7z",
            "current_location": "/api/v2/location/04305e96-acfe-41e3-865c-eed0e092d351/",
            "current_path": "b585/5ef6/fe5c/43b7/abec/2d96/f4cf/707e/test19-b5855ef6-fe5c-43b7-abec-2d96f4cf707e.7z",
            "encrypted": false,
            "misc_attributes": {},
            "origin_pipeline": "/api/v2/pipeline/2b3d91c5-fd64-4f35-9615-004e8b112979/",
            "package_type": "AIP",
            "related_packages": [],
            "replicas": [],
            "replicated_package": null,
            "resource_uri": "/api/v2/file/b5855ef6-fe5c-43b7-abec-2d96f4cf707e/",
            "size": 43460850,
            "status": "UPLOADED",
            "uuid": "b5855ef6-fe5c-43b7-abec-2d96f4cf707e"
        },
        {
            "current_full_path": "/var/archivematica/sharedDirectory/www/AIPsStore/efcd/c95c/5b92/460f/a208/2d5e/1d87/2b1f/test20-efcdc95c-5b92-460f-a208-2d5e1d872b1f.7z",
            "current_location": "/api/v2/location/04305e96-acfe-41e3-865c-eed0e092d351/",
            "current_path": "efcd/c95c/5b92/460f/a208/2d5e/1d87/2b1f/test20-efcdc95c-5b92-460f-a208-2d5e1d872b1f.7z",
            "encrypted": false,
            "misc_attributes": {},
            "origin_pipeline": "/api/v2/pipeline/2b3d91c5-fd64-4f35-9615-004e8b112979/",
            "package_type": "AIP",
            "related_packages": [],
            "replicas": [],
            "replicated_package": null,
            "resource_uri": "/api/v2/file/efcdc95c-5b92-460f-a208-2d5e1d872b1f/",
            "size": 43410533,
            "status": "UPLOADED",
            "uuid": "efcdc95c-5b92-460f-a208-2d5e1d872b1f"
        },
        {
            "current_full_path": "/var/archivematica/sharedDirectory/www/DIPsStore/35b4/f078/8307/46bc/a987/50de/ee76/f01e/test21-69a3692c-7377-4e9a-a434-f6396506a980",
            "current_location": "/api/v2/location/4e09f556-ae54-41f6-9dd9-e70d6e121964/",
            "current_path": "35b4/f078/8307/46bc/a987/50de/ee76/f01e/test21-69a3692c-7377-4e9a-a434-f6396506a980",
            "encrypted": false,
            "misc_attributes": {},
            "origin_pipeline": "/api/v2/pipeline/2b3d91c5-fd64-4f35-9615-004e8b112979/",
            "package_type": "DIP",
            "related_packages": [
                "/api/v2/file/69a3692c-7377-4e9a-a434-f6396506a980/"
            ],
            "replicas": [],
            "replicated_package": null,
            "resource_uri": "/api/v2/file/35b4f078-8307-46bc-a987-50deee76f01e/",
            "size": 25463468,
            "status": "UPLOADED",
            "uuid": "35b4f078-8307-46bc-a987-50deee76f01e"
        },
        {
            "current_full_path": "/var/archivematica/sharedDirectory/www/AIPsStore/4d73/7a43/dc07/4138/b7d3/8333/7653/7af9/test22-4d737a43-dc07-4138-b7d3-833376537af9.7z",
            "current_location": "/api/v2/location/04305e96-acfe-41e3-865c-eed0e092d351/",
            "current_path": "4d73/7a43/dc07/4138/b7d3/8333/7653/7af9/test22-4d737a43-dc07-4138-b7d3-833376537af9.7z",
            "encrypted": false,
            "misc_attributes": {},
            "origin_pipeline": "/api/v2/pipeline/2b3d91c5-fd64-4f35-9615-004e8b112979/",
            "package_type": "AIP",
            "related_packages": [],
            "replicas": [],
            "replicated_package": null,
            "resource_uri": "/api/v2/file/4d737a43-dc07-4138-b7d3-833376537af9/",
            "size": 11410687,
            "status": "UPLOADED",
            "uuid": "4d737a43-dc07-4138-b7d3-833376537af9"
        },
        {
            "current_full_path": "/var/archivematica/sharedDirectory/www/AIPsStore/69a3/692c/7377/4e9a/a434/f639/6506/a980/test21-69a3692c-7377-4e9a-a434-f6396506a980.7z",
            "current_location": "/api/v2/location/04305e96-acfe-41e3-865c-eed0e092d351/",
            "current_path": "69a3/692c/7377/4e9a/a434/f639/6506/a980/test21-69a3692c-7377-4e9a-a434-f6396506a980.7z",
            "encrypted": false,
            "misc_attributes": {},
            "origin_pipeline": "/api/v2/pipeline/2b3d91c5-fd64-4f35-9615-004e8b112979/",
            "package_type": "AIP",
            "related_packages": [
                "/api/v2/file/35b4f078-8307-46bc-a987-50deee76f01e/"
            ],
            "replicas": [],
            "replicated_package": null,
            "resource_uri": "/api/v2/file/69a3692c-7377-4e9a-a434-f6396506a980/",
            "size": 34784210,
            "status": "UPLOADED",
            "uuid": "69a3692c-7377-4e9a-a434-f6396506a980"
        }
    ]
}